答疑汇总
…
[[2]]
# A tibble: 38 × 2
   model               freq
   <chr>              <int>
 1 4runner 4wd            6
 2 a4                     7
 3 a4 quattro             8
 4 a6 quattro             3
 5 altima                 6
 6 c1500 suburban 2wd     5
 7 camry                  7
 8 camry solara           7
 9 caravan 2wd           11
10 civic                  9
# … with 28 more rows
…
